<?xml version="1.0" encoding="utf-8"?>
<!-- Generator: Adobe Illustrator 26.0.3, SVG Export Plug-In . SVG Version: 6.00 Build 0)  -->
<svg version="1.1" id="Layer_1" xmlns="http://www.w3.org/2000/svg" xmlns:xlink="http://www.w3.org/1999/xlink" x="0px" y="0px"
	 viewBox="0 0 36 28" style="enable-background:new 0 0 36 28;" xml:space="preserve">
<style type="text/css">
	.st0{fill:#FFFFFF;}
</style>
<path class="st0" d="M19,14l2.7,2.7c0.3,0.3,0.3,0.8,0,1.2c-0.3,0.3-0.8,0.3-1.2,0l-2.7-2.7l-2.7,2.7c-0.3,0.3-0.8,0.3-1.2,0
	c-0.3-0.3-0.3-0.8,0-1.2l2.7-2.7L14,11.4c-0.3-0.3-0.3-0.8,0-1.2s0.8-0.3,1.2,0l2.7,2.7l2.7-2.7c0.3-0.3,0.8-0.3,1.2,0
	c0.3,0.3,0.3,0.8,0,1.2L19,14z"/>
</svg>
