<svg id="Close" xmlns="http://www.w3.org/2000/svg" width="24" height="24" viewBox="0 0 24 24">
  <path id="Path_54" data-name="Path 54" d="M0,0H24V24H0Z" fill="none"/>
  <path id="close_big" d="M17.59,5,12,10.59,6.41,5,5,6.41,10.59,12,5,17.59,6.41,19,12,13.41,17.59,19,19,17.59,13.41,12,19,6.41Z" fill="#fff"/>
</svg>
